<svg width="163" height="386" viewBox="0 0 163 386" fill="none" xmlns="http://www.w3.org/2000/svg">
<g filter="url(#filter0_f_224_1084)">
<path d="M379.853 74.9601C388.322 69.859 404.806 86.3427 399.705 94.8117C374.842 136.089 348.583 190.718 348.583 237.332C348.583 283.947 374.842 338.576 399.705 379.853C404.806 388.322 388.322 404.806 379.853 399.705C338.576 374.842 283.947 348.583 237.332 348.583C190.718 348.583 136.089 374.842 94.8116 399.705C86.3427 404.806 69.859 388.322 74.9601 379.853C99.823 338.576 126.082 283.947 126.082 237.332C126.082 190.718 99.823 136.089 74.9601 94.8116C69.859 86.3427 86.3427 69.859 94.8117 74.9601C136.089 99.823 190.718 126.082 237.332 126.082C283.947 126.082 338.576 99.823 379.853 74.9601Z" fill="url(#paint0_linear_224_1084)"/>
</g>
<defs>
<filter id="filter0_f_224_1084" x="0.604256" y="0.604256" width="473.456" height="473.456" filterUnits="userSpaceOnUse" color-interpolation-filters="sRGB">
<feFlood flood-opacity="0" result="BackgroundImageFix"/>
<feBlend mode="normal" in="SourceGraphic" in2="BackgroundImageFix" result="shape"/>
<feGaussianBlur stdDeviation="36.6979" result="effect1_foregroundBlur_224_1084"/>
</filter>
<linearGradient id="paint0_linear_224_1084" x1="116.909" y1="107.22" x2="400.665" y2="348.066" gradientUnits="userSpaceOnUse">
<stop stop-color="#E98C00"/>
<stop offset="1" stop-color="#2FEBE0"/>
</linearGradient>
</defs>
</svg>
